('/home/raghu/camerascripts/build/campassport/campassport',
 True,
 False,
 True,
 None,
 None,
 False,
 False,
 None,
 True,
 'campassport.pkg',
 [('PYZ-00.pyz',
   '/home/raghu/camerascripts/build/campassport/PYZ-00.pyz',
   'PYZ'),
  ('struct', '/home/raghu/camera/lib/python3.6/struct.pyo', 'PYMODULE'),
  ('pyimod01_os_path',
   '/home/raghu/camera/lib/python3.6/site-packages/PyInstaller/loader/pyimod01_os_path.pyc',
   'PYMODULE'),
  ('pyimod02_archive',
   '/home/raghu/camera/lib/python3.6/site-packages/PyInstaller/loader/pyimod02_archive.pyc',
   'PYMODULE'),
  ('pyimod03_importers',
   '/home/raghu/camera/lib/python3.6/site-packages/PyInstaller/loader/pyimod03_importers.pyc',
   'PYMODULE'),
  ('pyiboot01_bootstrap',
   '/home/raghu/camera/lib/python3.6/site-packages/PyInstaller/loader/pyiboot01_bootstrap.py',
   'PYSOURCE'),
  ('pyi_rth_multiprocessing',
   '/home/raghu/camera/lib/python3.6/site-packages/PyInstaller/loader/rthooks/pyi_rth_multiprocessing.py',
   'PYSOURCE'),
  ('pyi_rth_pkgres',
   '/home/raghu/camera/lib/python3.6/site-packages/PyInstaller/loader/rthooks/pyi_rth_pkgres.py',
   'PYSOURCE'),
  ('pyi_rth__tkinter',
   '/home/raghu/camera/lib/python3.6/site-packages/PyInstaller/loader/rthooks/pyi_rth__tkinter.py',
   'PYSOURCE'),
  ('campassport', '/home/raghu/camerascripts/campassport.py', 'PYSOURCE'),
  ('visionpassport', '/home/raghu/camerascripts/visionpassport.py', 'PYSOURCE'),
  ('countrycodes', '/home/raghu/camerascripts/countrycodes.py', 'PYSOURCE'),
  ('localface', '/home/raghu/camerascripts/localface.py', 'PYSOURCE'),
  ('tkinterform', '/home/raghu/camerascripts/tkinterform.py', 'PYSOURCE')],
 [],
 False,
 False,
 1560942428,
 [('run',
   '/home/raghu/camera/lib/python3.6/site-packages/PyInstaller/bootloader/Linux-64bit/run',
   'EXECUTABLE')])
